id,name,model_id:id,group_id:id,perm_read,perm_write,perm_create,perm_unlink
access_colbio_universidad,access_colbio_universidad,model_colbio_universidad,group_colbio_user,1,0,0,0
access_colbio_estudio_titulo,access_colbio_estudio_titulo,model_colbio_estudio_titulo,group_colbio_user,1,0,0,0
access_colbio_idioma,access_colbio_idioma,model_colbio_idioma,group_colbio_user,1,0,0,0
access_colbio_estudio,access_colbio_estudio,model_colbio_estudio,group_colbio_user,1,0,0,0
access_colbio_profesion,access_colbio_profesion,model_colbio_profesion,group_colbio_user,1,0,0,0
access_colbio_familiar,access_colbio_familiar,model_colbio_familiar,group_colbio_user,1,0,0,0
access_colbio_especialidad,access_colbio_especialidad,model_colbio_especialidad,group_colbio_user,1,0,0,0
access_colbio_motivo,access_colbio_motivo,model_colbio_motivo,group_colbio_user,1,0,0,0
access_colbio_empleo,access_colbio_empleo,model_colbio_empleo,group_colbio_user,1,0,0,0
access_colbio_particular,access_colbio_particular,model_colbio_particular,group_colbio_user,1,0,0,0
access_colbio_ciudad,access_colbio_ciudad,model_colbio_ciudad,group_colbio_user,1,0,0,0
access_colbio_sector,access_colbio_sector,model_colbio_sector,group_colbio_user,1,0,0,0
access_colbio_practica,access_colbio_practica,model_colbio_practica,group_colbio_user,1,0,0,0
access_colbio_tipo_instrumento,access_colbio_tipo_instrumento,model_colbio_tipo_instrumento,group_colbio_user,1,0,0,0
access_colbio_marca_instrumento,access_colbio_marca_instrumento,model_colbio_marca_instrumento,group_colbio_user,1,0,0,0
access_colbio_instrumento,access_colbio_instrumento,model_colbio_instrumento,group_colbio_user,1,0,0,0
access_colbio_instrumento_laboratorio,access_colbio_instrumento_laboratorio,model_colbio_instrumento_laboratorio,group_colbio_user,1,0,0,0
access_colbio_laboratorio_externo,access_colbio_laboratorio_externo,model_colbio_laboratorio_externo,group_colbio_user,1,0,0,0
access_colbio_dias_semana,access_colbio_dias_semana,model_colbio_dias_semana,group_colbio_user,1,0,0,0
access_colbio_obra_social,access_colbio_obra_social,model_colbio_obra_social,group_colbio_user,1,0,0,0
access_colbio_caja_jubilatoria,access_colbio_caja_jubilatoria,model_colbio_caja_jubilatoria,group_colbio_user,1,0,0,0
access_colbio_dueno_laboratorio,access_colbio_dueno_laboratorio,model_colbio_dueno_laboratorio,group_colbio_user,1,0,0,0
access_colbio_matriculado_issue,access_colbio_matriculado_issue,model_colbio_matriculado_issue,group_colbio_user,1,0,0,0
access_colbio_universidad_mgr,access_colbio_universidad_mgr,model_colbio_universidad,group_colbio_manager,1,1,1,1
access_colbio_estudio_titulo_mgr,access_colbio_estudio_titulo_mgr,model_colbio_estudio_titulo,group_colbio_manager,1,1,1,1
access_colbio_idioma_mgr,access_colbio_idioma_mgr,model_colbio_idioma,group_colbio_manager,1,1,1,1
access_colbio_estudio_mgr,access_colbio_estudio_mgr,model_colbio_estudio,group_colbio_manager,1,1,1,1
access_colbio_profesion_mgr,access_colbio_profesion_mgr,model_colbio_profesion,group_colbio_manager,1,1,1,1
access_colbio_familiar_mgr,access_colbio_familiar_mgr,model_colbio_familiar,group_colbio_manager,1,1,1,1
access_colbio_especialidad_mgr,access_colbio_especialidad_mgr,model_colbio_especialidad,group_colbio_manager,1,1,1,1
access_colbio_motivo_mgr,access_colbio_motivo_mgr,model_colbio_motivo,group_colbio_manager,1,1,1,1
access_colbio_empleo_mgr,access_colbio_empleo_mgr,model_colbio_empleo,group_colbio_manager,1,1,1,1
access_colbio_particular_mgr,access_colbio_particular_mgr,model_colbio_particular,group_colbio_manager,1,1,1,1
access_colbio_ciudad_mgr,access_colbio_ciudad,model_colbio_ciudad,group_colbio_manager,1,1,1,1
access_colbio_sector_mgr,access_colbio_sector,model_colbio_sector,group_colbio_manager,1,1,1,1
access_colbio_practica_mgr,access_colbio_practica,model_colbio_practica,group_colbio_manager,1,1,1,1
access_colbio_tipo_instrumento_mgr,access_colbio_tipo_instrumento,model_colbio_tipo_instrumento,group_colbio_manager,1,1,1,1
access_colbio_marca_instrumento_mgr,access_colbio_marca_instrumento,model_colbio_marca_instrumento,group_colbio_manager,1,1,1,1
access_colbio_instrumento_mgr,access_colbio_instrumento,model_colbio_instrumento,group_colbio_manager,1,1,1,1
access_colbio_instrumento_laboratorio_mgr,access_colbio_instrumento_laboratorio,model_colbio_instrumento_laboratorio,group_colbio_manager,1,1,1,1
access_colbio_laboratorio_externo_mgr,access_colbio_laboratorio_externo,model_colbio_laboratorio_externo,group_colbio_manager,1,1,1,1
access_colbio_dias_semana_mgr,access_colbio_dias_semana,model_colbio_dias_semana,group_colbio_manager,1,1,1,1
access_colbio_obra_social_mgr,access_colbio_obra_social,model_colbio_obra_social,group_colbio_manager,1,1,1,1
access_colbio_caja_jubilatoria_mgr,access_colbio_caja_jubilatoria,model_colbio_caja_jubilatoria,group_colbio_manager,1,1,1,1
access_colbio_dueno_laboratorio_mgr,access_colbio_dueno_laboratorio,model_colbio_dueno_laboratorio,group_colbio_manager,1,1,1,1
access_colbio_matriculado_issue_mgr,access_colbio_matriculado_issue,model_colbio_matriculado_issue,group_colbio_manager,1,1,1,1
access_colbio_account_invoice_mgr,access_colbio_account_invoice,l10n_ar_account.model_account_invoice,group_colbio_manager,1,1,1,1
access_colbio_account_invoice_line_mgr,acces_colbio_account_invoice_line,l10n_ar_account.model_account_invoice_line,group_colbio_manager,1,1,1,1
access_colbio_product_template_line_mgr,acces_colbio_product_template_line,product.model_product_template,group_colbio_manager,1,1,1,1
access_colbio_product_product_mgr,access_colbio_product_product_mgr,product.model_product_product,group_colbio_manager,1,1,1,1
access_colbio_account_journal_mgr,access_colbio_account_journal_mgr,l10n_ar_account.model_account_journal,group_colbio_manager,1,0,0,0
access_colbio_account_invoice_tax_mgr,access_colbio_account_invoice_tax_mgr,l10n_ar_account.model_account_invoice_tax,group_colbio_manager,1,1,1,1
access_colbio_account_move_line_mgr,access_colbio_account_move_line_mgr,l10n_ar_account.model_account_move_line,group_colbio_manager,1,1,1,0
